ISSS608-VAA - Take Home Exercise 03
…
4.2 Data Cleaning

Since we do not have much columns and rows in our data sets, we can just examine them by just view() them. The result shows there is no missing value and duplicates.

1983
1993
2003
2013
2023

rain1983

# A tibble: 31 × 5
   Station     Year Month   Day `Daily Rainfall Total (mm)`
   <chr>      <dbl> <dbl> <dbl>                       <dbl>
 1 Queenstown  1983    12     1                         3.5
 2 Queenstown  1983    12     2                         0.8
 3 Queenstown  1983    12     3                         4.9
 4 Queenstown  1983    12     4                         0  
 5 Queenstown  1983    12     5                         0  
 6 Queenstown  1983    12     6                         0  
 7 Queenstown  1983    12     7                         0  
 8 Queenstown  1983    12     8                         1.7
 9 Queenstown  1983    12     9                        31.7
10 Queenstown  1983    12    10                        11.6
# ℹ 21 more rows

rain1993

# A tibble: 31 × 5
   Station     Year Month   Day `Daily Rainfall Total (mm)`
   <chr>      <dbl> <dbl> <dbl>                       <dbl>
 1 Queenstown  1993    12     1                       108. 
 2 Queenstown  1993    12     2                        89.4
 3 Queenstown  1993    12     3                        39.3
 4 Queenstown  1993    12     4                        35.1
 5 Queenstown  1993    12     5                         6.3
 6 Queenstown  1993    12     6                         7.6
 7 Queenstown  1993    12     7                         0  
 8 Queenstown  1993    12     8                        38  
 9 Queenstown  1993    12     9                         0  
10 Queenstown  1993    12    10                        10.1
# ℹ 21 more rows

rain2003

# A tibble: 31 × 5
   Station     Year Month   Day `Daily Rainfall Total (mm)`
   <chr>      <dbl> <dbl> <dbl>                       <dbl>
 1 Queenstown  2003    12     1                         0.1
 2 Queenstown  2003    12     2                        28.3
 3 Queenstown  2003    12     3                         0  
 4 Queenstown  2003    12     4                         0  
 5 Queenstown  2003    12     5                         0.3
 6 Queenstown  2003    12     6                         0.1
 7 Queenstown  2003    12     7                         3.4
 8 Queenstown  2003    12     8                         0.2
 9 Queenstown  2003    12     9                        16.6
10 Queenstown  2003    12    10                         7.9
# ℹ 21 more rows

rain2013

# A tibble: 31 × 5
   Station     Year Month   Day `Daily Rainfall Total (mm)`
   <chr>      <dbl> <dbl> <dbl>                       <dbl>
 1 Queenstown  2013    12     1                        22.6
 2 Queenstown  2013    12     2                         7  
 3 Queenstown  2013    12     3                        27.2
 4 Queenstown  2013    12     4                         0.2
 5 Queenstown  2013    12     5                         0  
 6 Queenstown  2013    12     6                         4  
 7 Queenstown  2013    12     7                         0  
 8 Queenstown  2013    12     8                        24.2
 9 Queenstown  2013    12     9                         0.2
10 Queenstown  2013    12    10                         0.2
# ℹ 21 more rows

rain2023

# A tibble: 31 × 5
   Station     Year Month   Day `Daily Rainfall Total (mm)`
   <chr>      <dbl> <dbl> <dbl>                       <dbl>
 1 Queenstown  2023    12     1                        11.2
 2 Queenstown  2023    12     2                         0  
 3 Queenstown  2023    12     3                         1.2
 4 Queenstown  2023    12     4                         1.8
 5 Queenstown  2023    12     5                         6.8
 6 Queenstown  2023    12     6                        28.6
 7 Queenstown  2023    12     7                        28.2
 8 Queenstown  2023    12     8                        41.2
 9 Queenstown  2023    12     9                         0  
10 Queenstown  2023    12    10                         0  
# ℹ 21 more rows
…
rain1983 <- rain1983 %>% select(Day,rainfall_1983)
rain1993 <- rain1993 %>% select(Day,rainfall_1993)
rain2003 <- rain2003 %>% select(Day,rainfall_2003)
rain2013 <- rain2013 %>% select(Day,rainfall_2013)
rain2023 <- rain2023 %>% select(Day,rainfall_2023)

rainfall <- rain1983 %>%
  inner_join(rain1993, by = "Day") %>%
  inner_join(rain2003, by = "Day") %>%
  inner_join(rain2013, by = "Day") %>%
  inner_join(rain2023, by = "Day")
rainfall

# A tibble: 31 × 6
     Day rainfall_1983 rainfall_1993 rainfall_2003 rainfall_2013 rainfall_2023
   <dbl>         <dbl>         <dbl>         <dbl>         <dbl>         <dbl>
 1     1           3.5         108.            0.1          22.6          11.2
 2     2           0.8          89.4          28.3           7             0  
 3     3           4.9          39.3           0            27.2           1.2
 4     4           0            35.1           0             0.2           1.8
 5     5           0             6.3           0.3           0             6.8
 6     6           0             7.6           0.1           4            28.6
 7     7           0             0             3.4           0            28.2
 8     8           1.7          38             0.2          24.2          41.2
 9     9          31.7           0            16.6           0.2           0  
10    10          11.6          10.1           7.9           0.2           0  
# ℹ 21 more rows

library(tidyr)

# Gather columns into long format
rainfall_long <- gather(rainfall, key = "Year", value = "Rainfall", starts_with("rainfall_"))

g_year <- sub("rainfall_", "", rainfall_long$Year)

rainfall_long$ActualYear <- g_year
rainfall_long

# A tibble: 155 × 4
     Day Year          Rainfall ActualYear
   <dbl> <chr>            <dbl> <chr>     
 1     1 rainfall_1983      3.5 1983      
 2     2 rainfall_1983      0.8 1983      
 3     3 rainfall_1983      4.9 1983      
 4     4 rainfall_1983      0   1983      
 5     5 rainfall_1983      0   1983      
 6     6 rainfall_1983      0   1983      
 7     7 rainfall_1983      0   1983      
 8     8 rainfall_1983      1.7 1983      
 9     9 rainfall_1983     31.7 1983      
10    10 rainfall_1983     11.6 1983      
# ℹ 145 more rows
…
